…
19    493    363       805  1097   275.4455
20    522    447       963  1561   264.1585
21    595    395      1133  1561   270.3925
22    507    207       874  1186   223.3827
23    593    326      1102  1449   301.1598
24    555    361      1106  1761   264.3637
25    507    320       941  1444   247.3428
26    504    232       847  1302   273.6414
27    585    377       910  1182   230.0762
28    601    358       901  1492   271.3683
29    550    410      1060  1545   263.3112
30    619    301      1024  1536   241.8192
   Min. 1st Qu.  Median    Mean 3rd Qu.    Max. 
  0.000   9.692  15.527  17.587  23.550  61.790 
# A tibble: 30 x 15
   team  sum_experience sum_salary sum_points3 sum_points2 sum_points1 sum_points
   <fct>          <int>      <dbl>       <int>       <int>       <int>      <int>
 1 ATL              175       93.4         660        2337        1453       8107
 2 BOS              185       91.9         985        2183        1536       8857
 3 BRK              248       76.2         777        2040        1444       7855
 4 CHI              146       92.5         565        2162        1330       7349
 5 CHO              176       88.5         808        2089        1497       8099
 6 CLE              147      127.         1030        2148        1384       8770
 7 DAL              244       92.8         712        1754        1007       6651
 8 DEN              217       79.0         868        2351        1477       8783
 9 DET              168      103.          631        2638        1140       8309
10 GSW              168      100.          982        2545        1455       9491
# ... with 20 more rows, and 8 more variables: sum_off_rebounds <int>,
#   sum_def_rebounds <int>, sum_assists <int>, sum_steals <int>, sum_blocks <int>,
#   sum_turnovers <int>, sum_fouls <int>, sum_efficiency <dbl>
   Min. 1st Qu.  Median    Mean 3rd Qu.    Max. 
  0.000   9.692  15.527  17.587  23.550  61.790 
# A tibble: 30 x 15
   team  sum_experience sum_salary sum_points3 sum_points2 sum_points1 sum_points
   <fct>          <int>      <dbl>       <int>       <int>       <int>      <int>
 1 ATL              175       93.4         660        2337        1453       8107
 2 BOS              185       91.9         985        2183        1536       8857
 3 BRK              248       76.2         777        2040        1444       7855
 4 CHI              146       92.5         565        2162        1330       7349
 5 CHO              176       88.5         808        2089        1497       8099
 6 CLE              147      127.         1030        2148        1384       8770
 7 DAL              244       92.8         712        1754        1007       6651
 8 DEN              217       79.0         868        2351        1477       8783
 9 DET              168      103.          631        2638        1140       8309
10 GSW              168      100.          982        2545        1455       9491
# ... with 20 more rows, and 8 more variables: sum_off_rebounds <int>,
#   sum_def_rebounds <int>, sum_assists <int>, sum_steals <int>, sum_blocks <int>,
#   sum_turnovers <int>, sum_fouls <int>, sum_efficiency <dbl>
   Min. 1st Qu.  Median    Mean 3rd Qu.    Max. 
  0.000   9.692  15.527  17.587  23.550  61.790 
# A tibble: 30 x 15
   team  sum_experience sum_salary sum_points3 sum_points2 sum_points1 sum_points
   <fct>          <int>      <dbl>       <int>       <int>       <int>      <int>
 1 ATL              175       93.4         660        2337        1453       8107
 2 BOS              185       91.9         985        2183        1536       8857
 3 BRK              248       76.2         777        2040        1444       7855
 4 CHI              146       92.5         565        2162        1330       7349
 5 CHO              176       88.5         808        2089        1497       8099
 6 CLE              147      127.         1030        2148        1384       8770
 7 DAL              244       92.8         712        1754        1007       6651
 8 DEN              217       79.0         868        2351        1477       8783
 9 DET              168      103.          631        2638        1140       8309
10 GSW              168      100.          982        2545        1455       9491
# ... with 20 more rows, and 8 more variables: sum_off_rebounds <int>,
#   sum_def_rebounds <int>, sum_assists <int>, sum_steals <int>, sum_blocks <int>,
#   sum_turnovers <int>, sum_fouls <int>, sum_efficiency <dbl>
   Min. 1st Qu.  Median    Mean 3rd Qu.    Max. 
  0.000   9.692  15.527  17.587  23.550  61.790 
# A tibble: 30 x 15
   team  sum_experience sum_salary sum_points3 sum_points2 sum_points1 sum_points
   <fct>          <int>      <dbl>       <int>       <int>       <int>      <int>
 1 ATL              175       93.4         660        2337        1453       8107
 2 BOS              185       91.9         985        2183        1536       8857
 3 BRK              248       76.2         777        2040        1444       7855
 4 CHI              146       92.5         565        2162        1330       7349
 5 CHO              176       88.5         808        2089        1497       8099
 6 CLE              147      127.         1030        2148        1384       8770
 7 DAL              244       92.8         712        1754        1007       6651
 8 DEN              217       79.0         868        2351        1477       8783
 9 DET              168      103.          631        2638        1140       8309
10 GSW              168      100.          982        2545        1455       9491
# ... with 20 more rows, and 8 more variables: sum_off_rebounds <int>,
#   sum_def_rebounds <int>, sum_assists <int>, sum_steals <int>, sum_blocks <int>,
#   sum_turnovers <int>, sum_fouls <int>, sum_efficiency <dbl>
…
